ignored line
ignored line
ignored line
ignored line
ignored line
ignored line
ignored line
1 1
0 0 0
1 2
1 0 0
1 3
0 1 0
1 4
1 1 0
1 5
0 0 1
1 6
1 0 1
1 7
0 1 1
1 8
1 1 1
2 1
1 2
2 2
1 3
2 3
3 4
2 4
2 4
2 5
5 6
2 6
5 7
2 7
7 8
2 8
6 8
2 9
1 5
2 10
2 6
2 11
3 7
2 12
4 8
ignored line
ignored line
ignored line
ignored line
ignored line
ignored line
ignored line
